<?xml version="1.0" encoding="utf-8"?>
<!-- Generator: Adobe Illustrator 16.0.0, SVG Export Plug-In . SVG Version: 6.00 Build 0)  -->
<!DOCTYPE svg PUBLIC "-//W3C//DTD SVG 1.1//EN" "http://www.w3.org/Graphics/SVG/1.1/DTD/svg11.dtd">
<svg version="1.1" id="Layer_1" xmlns="http://www.w3.org/2000/svg" xmlns:xlink="http://www.w3.org/1999/xlink" x="0px" y="0px"
	 width="48px" height="48px" viewBox="0 0 48 48" enable-background="new 0 0 48 48" xml:space="preserve">
<circle opacity="0.8" fill="#1F2020" cx="24" cy="24.026" r="23.974"/>
<g>
	<path fill="#FFFFFF" d="M32.256,27.261c0,0.553-0.203,1.107-0.615,1.539c-0.85,0.895-2.264,0.93-3.16,0.08l-5.257-4.999L18,28.874
		c-0.891,0.854-2.305,0.822-3.158-0.068c-0.855-0.895-0.822-2.309,0.069-3.161l6.762-6.467c0.861-0.824,2.221-0.827,3.085-0.006
		l6.805,6.468C32.021,26.079,32.256,26.668,32.256,27.261z"/>
</g>
</svg>
