<?xml version="1.0" standalone="no"?>
<!DOCTYPE svg PUBLIC "-//W3C//DTD SVG 1.1//EN" "http://www.w3.org/Graphics/SVG/1.1/DTD/svg11.dtd" >
<svg xmlns="http://www.w3.org/2000/svg">
<metadata>Generated by IcoMoon</metadata>
<defs>
<font id="icomoon" horiz-adv-x="1024">
<font-face units-per-em="1024" ascent="960" descent="-64" />
<missing-glyph horiz-adv-x="1024" />
<glyph unicode="&#x20;" horiz-adv-x="512" d="" />
<glyph unicode="&#xe900;" glyph-name="coins" d="M1023.812 601.6c-1.69 29.201-36.42 52.019-105.882 69.427 2.338 5.12 3.652 10.445 3.669 15.974v119.398h-0.29c-6.11 99.465-413.696 102.4-460.51 102.4s-454.4-2.935-460.51-102.4h-0.29v-119.45c0.085-32.427 41.933-57.805 104.192-76.698-0.853-2.833-1.365-5.717-1.536-8.653h-0.256v-119.245c-67.072-17.271-100.574-39.765-102.229-68.489h-0.171v-119.45c0.051-22.579 20.412-41.728 53.726-57.685-1.263-3.465-2.048-6.997-2.27-10.615h-0.256v-119.45c0.137-56.764 127.949-92.006 269.961-108.459 1.041-0.205 1.997-0.631 3.106-0.631 0.324 0 0.597 0.171 0.922 0.188 27.375-3.089 55.194-5.495 82.722-7.219 0.58-0.068 1.092-0.341 1.69-0.341 0.324 0 0.58 0.171 0.887 0.188 34.953-2.116 69.342-3.191 101.513-3.191s66.56 1.075 101.513 3.209c0.307-0.017 0.58-0.188 0.887-0.188 0.597 0 1.109 0.29 1.69 0.341 27.529 1.724 55.347 4.113 82.722 7.219 0.324 0 0.597-0.171 0.922-0.171 1.109 0 2.065 0.427 3.106 0.631 142.012 16.452 269.807 51.712 269.961 108.493v119.398h-0.273c-1.195 20.924-19.029 38.383-54.255 52.975 2.15 4.932 3.328 10.052 3.328 15.36v111.548c61.269 18.842 102.315 44.049 102.4 76.186v119.398h-0.188zM885.623 288.922l-5.82-5.103c-8.96-7.902-23.893-15.872-43.537-23.552v81.374c20.292 7.066 37.564 14.899 51.2 23.484v-70.622c0-1.758-0.649-3.635-1.843-5.581zM503.91 209.613c-2.492-0.068-5.001-0.102-7.509-0.154-6.093-0.119-12.339-0.154-18.517-0.205v85.248c4.693 0.051 9.387 0.119 14.080 0.205 0.905 0.017 1.809 0.034 2.714 0.051 17.186 0.324 34.372 0.853 51.473 1.638v-85.214c-3.652-0.188-7.322-0.358-11.025-0.512-10.274-0.461-20.651-0.802-31.215-1.058zM429.38 209.374c-7.817 0.137-15.599 0.324-23.33 0.563-0.956 0.034-1.911 0.068-2.867 0.102-9.301 0.307-18.534 0.7-27.699 1.143v85.197c17.101-0.802 34.287-1.331 51.473-1.638 0.905-0.017 1.809-0.034 2.697-0.051 4.693-0.085 9.387-0.154 14.080-0.205v-85.299c-3.311 0.034-6.622 0.034-9.916 0.085-1.502 0.034-2.953 0.085-4.437 0.102zM121.122 248.286c-0.563 0.171-1.092 0.324-1.655 0.478v82.449c15.94-4.301 33.075-8.226 51.2-11.793v-83.302c-15.667 3.328-30.123 6.827-43.281 10.411-2.082 0.597-4.233 1.161-6.263 1.758zM480.853 106.957c4.693-0.085 9.387-0.154 14.080-0.205v-85.316c-23.586 0.222-46.353 0.905-68.267 1.98v85.214c17.101-0.802 34.287-1.331 51.473-1.638 0.905 0 1.809-0.017 2.714-0.034zM545.86 107.008c17.186 0.324 34.372 0.853 51.473 1.638v-85.214c-21.914-1.075-44.681-1.758-68.267-1.98v85.316c4.693 0.051 9.387 0.119 14.080 0.205 0.905 0 1.809 0.017 2.714 0.034zM682.667 114.722v-84.753c-16.401-1.724-33.468-3.243-51.2-4.489v85.111c17.306 1.126 34.406 2.509 51.2 4.13zM716.8 118.409c17.596 2.116 34.679 4.523 51.2 7.202v-83.797c-16.077-2.833-33.161-5.444-51.2-7.817v84.412zM802.133 131.703c18.125 3.567 35.26 7.492 51.2 11.793v-82.449c-15.206-4.386-32.324-8.636-51.2-12.646v83.302zM221.867 131.703v-83.302c-18.876 4.011-35.994 8.26-51.2 12.646v82.449c15.94-4.301 33.075-8.243 51.2-11.793zM256 125.594c16.521-2.679 33.604-5.086 51.2-7.202v-84.412c-18.039 2.372-35.123 4.983-51.2 7.817v83.797zM341.333 114.722c16.794-1.621 33.894-3.004 51.2-4.147v-85.111c-17.732 1.246-34.799 2.765-51.2 4.489v84.77zM298.991 216.781c-1.741 0.171-3.465 0.358-5.188 0.529-1.229 0.119-2.441 0.273-3.669 0.393v84.736c16.794-1.621 33.894-3.004 51.2-4.147v-85.043c-14.336 1.024-28.501 2.185-42.342 3.533zM256 306.142v-84.412c-18.039 2.372-35.123 4.983-51.2 7.817v83.797c16.521-2.679 33.604-5.103 51.2-7.202zM591.633 214.050c-3.755-0.29-7.543-0.58-11.366-0.853v85.111c17.306 1.143 34.406 2.509 51.2 4.147v-84.753c-10.547-1.109-21.333-2.15-32.41-3.055-2.475-0.222-4.949-0.41-7.424-0.597zM665.6 221.73v84.412c17.596 2.116 34.679 4.523 51.2 7.202v-83.797c-16.077-2.833-33.161-5.461-51.2-7.817zM750.933 319.437c18.125 3.567 35.26 7.492 51.2 11.793v-82.449c-15.206-4.386-32.324-8.636-51.2-12.646v83.302zM517.547 397.397c-12.834 0.324-25.378 0.819-37.7 1.417-0.666 0.034-1.331 0.068-1.98 0.085v85.214c17.101-0.802 34.287-1.331 51.473-1.638 0.905-0.017 1.809-0.034 2.697-0.051 4.693-0.085 9.387-0.154 14.080-0.205v-85.214c-8.311 0.085-16.691 0.119-24.798 0.307-1.246 0.034-2.526 0.051-3.772 0.085zM119.467 641.297v82.449c15.94-4.301 33.075-8.226 51.2-11.793v-83.302c-2.099 0.444-4.267 0.887-6.315 1.331-9.079 1.997-17.937 4.079-26.402 6.281-6.451 1.655-12.578 3.345-18.483 5.035zM429.653 687.223c4.693-0.085 9.387-0.154 14.080-0.205v-85.214c-22.972 0.222-45.807 0.819-68.267 1.946v85.146c17.101-0.802 34.287-1.331 51.473-1.638 0.905 0 1.809-0.017 2.714-0.034zM494.66 687.275c17.186 0.324 34.372 0.853 51.473 1.638v-85.146c-2.901-0.137-5.683-0.341-8.602-0.478-0.239-0.017-0.478-0.017-0.734-0.034-11.452-0.512-23.125-0.887-34.953-1.161-1.843-0.051-3.686-0.068-5.53-0.119-6.076-0.119-12.288-0.137-18.449-0.205v85.248c4.693 0.051 9.387 0.119 14.080 0.205 0.905 0.017 1.809 0.034 2.714 0.051zM883.558 678.707l-0.478 0.102-6.212-4.83c-9.011-7.014-22.852-14.114-40.602-20.975v81.186c20.292 7.066 37.564 14.899 51.2 23.484v-70.622c0-2.594-1.365-5.393-3.908-8.346zM665.6 614.366v84.309c17.596 2.116 34.679 4.523 51.2 7.202v-83.661c-16.179-2.867-33.212-5.495-51.2-7.851zM750.933 628.787v83.166c18.125 3.567 35.26 7.492 51.2 11.793v-82.261c-15.292-4.454-32.512-8.704-51.2-12.698zM631.467 694.989v-84.651c-16.486-1.741-33.553-3.26-51.2-4.523v85.026c17.306 1.143 34.406 2.526 51.2 4.147zM290.133 610.304v84.685c16.794-1.621 33.894-3.004 51.2-4.147v-84.958c-17.374 1.246-34.509 2.662-51.2 4.42zM256 698.675v-84.326c-3.379 0.444-6.895 0.802-10.24 1.263-2.185 0.307-4.267 0.631-6.417 0.939-9.865 1.417-19.507 2.935-28.962 4.523-1.894 0.324-3.721 0.666-5.581 0.99v83.797c16.521-2.662 33.604-5.086 51.2-7.185zM439.501 401.254c-2.304 0.171-4.625 0.341-6.912 0.512-10.923 0.853-21.589 1.792-32 2.833-2.236 0.222-4.471 0.461-6.69 0.683-0.461 0.051-0.905 0.119-1.365 0.154v84.753c16.794-1.621 33.894-3.004 51.2-4.147v-85.060c-1.382 0.102-2.85 0.171-4.233 0.273zM326.741 414.003c-6.758 1.075-13.107 2.236-19.541 3.362v83.695c16.521-2.679 33.604-5.086 51.2-7.202v-84.412c-10.445 1.382-20.668 2.816-30.481 4.352-0.393 0.085-0.785 0.154-1.178 0.205zM273.067 507.17v-83.166c-18.859 4.045-35.959 8.346-51.2 12.817v82.142c15.94-4.301 33.075-8.243 51.2-11.793zM187.733 529.391v-81.084c-26.829 10.359-44.134 20.941-49.766 30.362l-1.143 1.911c-0.102 0.529-0.273 1.092-0.29 1.621v70.673c13.636-8.585 30.908-16.418 51.2-23.484zM597.060 482.475c17.186 0.324 34.372 0.853 51.473 1.638v-85.129c-22.426-1.109-45.227-1.724-68.267-1.963v85.197c4.693 0.051 9.387 0.119 14.080 0.205 0.905 0.017 1.809 0.034 2.714 0.051zM817.613 416.99c-7.492-1.297-15.053-2.577-22.818-3.755-4.454-0.683-9.011-1.331-13.585-1.98-4.318-0.614-8.806-1.143-13.193-1.707v84.326c17.596 2.116 34.679 4.523 51.2 7.202v-83.797c-0.546-0.102-1.075-0.205-1.604-0.29zM702.054 402.415c-6.366-0.529-12.937-0.87-19.388-1.331v84.958c17.306 1.143 34.406 2.509 51.2 4.147v-84.668c-9.916-1.041-19.814-2.082-30.003-2.935-0.614-0.051-1.195-0.119-1.809-0.171zM897.092 434.415c-8.499-2.372-17.493-4.591-26.675-6.758-4.25-0.99-8.585-1.98-13.022-2.935-1.314-0.29-2.714-0.546-4.045-0.836v83.268c18.125 3.567 35.26 7.492 51.2 11.793v-82.449c-2.458-0.683-4.932-1.382-7.458-2.082zM989.679 600.491c-1.57-11.588-27.836-26.999-74.718-41.489v0c-60.382-18.654-154.863-35.738-274.603-41.028-6.127-0.256-12.237-0.512-18.483-0.717-5.103-0.171-10.223-0.324-15.428-0.461-14.131-0.307-28.467-0.529-43.247-0.529s-29.116 0.222-43.247 0.546c-5.188 0.119-10.308 0.29-15.428 0.461-6.263 0.188-12.373 0.461-18.483 0.717-119.74 5.291-214.238 22.374-274.603 41.028v0c-46.507 14.37-72.721 29.662-74.667 41.199 0.085 0.324 0.085 0.597 0.29 1.007 1.161-0.29 2.458-0.529 3.635-0.819 6.673-1.587 13.517-3.123 20.48-4.591 33.911-7.305 71.492-13.295 111.531-17.869 0.137 0 0.239-0.068 0.358-0.068 0.034 0 0.068 0.017 0.085 0.017 27.273-3.106 55.569-5.547 84.617-7.27 0.222 0 0.41-0.119 0.631-0.119 0.119 0 0.205 0.068 0.324 0.068 20.907-1.229 42.086-2.133 63.522-2.611 13.124-0.324 26.010-0.495 38.554-0.495 8.96 0 18.142 0.102 27.409 0.273 124.006 1.911 238.933 16.657 318.908 39.509 3.686 1.041 7.287 2.116 10.837 3.191 2.167 0.666 4.386 1.314 6.485 1.98 6.178 1.98 12.1 4.011 17.818 6.127 0.99 0.375 1.929 0.751 2.918 1.126 4.83 1.826 9.472 3.721 13.909 5.649 1.28 0.563 2.594 1.109 3.84 1.673 4.727 2.133 9.301 4.318 13.534 6.588 1.911 1.007 3.567 2.048 5.359 3.072 2.048 1.178 4.096 2.372 5.99 3.584 1.075 0.683 2.355 1.331 3.379 2.014 76.407-16.572 96.546-34.697 98.492-41.762zM460.8 874.667c281.412 0 423.748-44.305 426.411-69.734-2.065-11.537-28.262-26.778-74.65-41.114v0c-60.382-18.654-154.863-35.738-274.603-41.028-6.127-0.256-12.237-0.512-18.483-0.717-5.103-0.171-10.223-0.324-15.428-0.461-14.131-0.324-28.467-0.546-43.247-0.546s-29.116 0.222-43.247 0.546c-5.188 0.119-10.308 0.29-15.428 0.461-6.263 0.188-12.373 0.461-18.483 0.717-119.74 5.291-214.238 22.374-274.603 41.028v0c-46.404 14.336-72.585 29.577-74.65 41.114 2.662 25.429 144.998 69.734 426.411 69.734zM34.133 687.002v70.673c13.636-8.585 30.908-16.418 51.2-23.484v-81.715c-33.195 12.442-51.166 24.917-51.2 34.526zM116.804 450.816c0.256-0.273 0.649-0.512 0.905-0.785 23.364-23.586 71.748-42.121 131.977-55.945 1.382-0.324 2.85-0.631 4.25-0.956 4.42-0.99 8.909-1.963 13.449-2.901 55.313-11.776 121.344-20.292 193.28-24.508 0.051 0 0.085-0.017 0.119-0.017s0.051 0.017 0.068 0.017c23.108-1.348 46.746-2.287 70.878-2.697 10.684-0.222 21.197-0.358 31.471-0.358 11.776 0 23.859 0.137 36.147 0.427 22.323 0.461 44.322 1.382 66.014 2.645 0.085 0 0.154-0.051 0.239-0.051 0.154 0 0.273 0.085 0.427 0.085 72.124 4.25 139.793 12.851 197.018 25.225-12.39-6.485-29.355-13.193-50.483-19.729v0c-63.744-19.695-165.547-37.632-294.929-41.796-3.84-0.119-7.629-0.256-11.52-0.358-4.181-0.102-8.431-0.171-12.681-0.256-10.735-0.171-21.538-0.324-32.631-0.324-14.78 0-29.116 0.222-43.247 0.546-5.188 0.119-10.308 0.29-15.428 0.461-6.263 0.188-12.373 0.461-18.483 0.717-119.74 5.291-214.238 22.374-274.603 41.028v0c-46.933 14.507-73.199 29.935-74.718 41.523 1.894 6.417 19.149 22.477 82.483 38.007zM34.133 294.468v70.673c13.636-8.585 30.908-16.418 51.2-23.484v-81.391l-9.745 3.789-0.205-0.205c-26.795 11.11-41.216 22.016-41.25 30.618zM85.333 106.735v70.673c13.636-8.585 30.908-16.418 51.2-23.484v-81.715c-33.195 12.442-51.166 24.917-51.2 34.526zM887.467 72.209v81.698c20.292 7.066 37.564 14.899 51.2 23.484v-70.622c-0.017-9.609-18.005-22.101-51.2-34.56zM938.445 224.819c-1.86-11.554-28.075-26.88-74.684-41.284v0c-60.382-18.654-154.863-35.738-274.603-41.028-6.127-0.256-12.237-0.512-18.483-0.717-5.103-0.171-10.223-0.324-15.428-0.461-14.131-0.307-28.467-0.529-43.247-0.529s-29.133 0.222-43.281 0.546c-5.137 0.119-10.206 0.29-15.275 0.461-6.298 0.205-12.442 0.461-18.603 0.717-119.74 5.291-214.221 22.374-274.603 41.028v0c-45.141 13.943-71.219 28.757-74.496 40.192 5.086-1.775 10.359-3.499 15.77-5.188 0.546-0.171 1.092-0.341 1.638-0.495 4.608-1.417 9.318-2.782 14.148-4.113 1.826-0.512 3.669-1.024 5.53-1.519 2.731-0.734 5.53-1.434 8.329-2.15 62.157-15.923 141.5-27.204 227.157-32.273 0.034 0 0.051-0.017 0.085-0.017 0.017 0 0.034 0.017 0.051 0.017 26.453-1.57 53.47-2.543 80.777-2.867 7.27-0.137 14.49-0.205 21.572-0.205 9.404 0 19.029 0.119 28.774 0.29 24.9 0.41 49.476 1.331 73.506 2.765 0.051 0 0.085-0.034 0.137-0.034 0.085 0 0.137 0.051 0.222 0.051 29.269 1.758 57.6 4.267 84.821 7.39 0.102 0 0.188-0.051 0.29-0.051 0.375 0 0.683 0.188 1.058 0.222 30.31 3.499 59.051 7.799 85.726 12.8 5.495 1.007 10.906 2.048 16.265 3.123 1.195 0.239 2.389 0.478 3.584 0.734 50.398 10.342 94.020 23.74 123.955 40.346 1.638 0.887 3.174 1.809 4.727 2.714 1.894 1.126 3.703 2.27 5.461 3.43 1.638 1.058 3.533 2.082 5.035 3.157 33.69-12.015 42.974-22.767 44.083-27.051zM938.667 447.676v81.698c20.292 7.066 37.564 14.899 51.2 23.484v-70.622c-0.017-9.609-18.005-22.101-51.2-34.56z" />
<glyph unicode="&#xe901;" glyph-name="days" d="M763.262 743.884c39.243 0 71.031 31.577 71.031 70.89v74.195c0 39.348-31.753 71.031-71.031 71.031s-70.995-31.647-70.995-71.031v-74.23c0.035-39.278 31.753-70.855 70.995-70.855zM1015.596 837.138h-142.975v-36.113c0-59.602-48.42-108.163-108.128-108.163-59.778 0-108.093 48.561-108.093 108.163v36.113h-288.518v-36.113c0-59.602-48.491-108.163-108.163-108.163s-108.128 48.526-108.128 108.163v36.113l-144.276 1.793v-902.932l1009.372 0.211-1.090 900.927zM944.565 7.91h-865.096v576.824h865.166v-576.824h-0.070zM258.593 743.884c39.243 0 71.066 31.577 71.066 70.89v74.195c0 39.383-31.823 71.031-71.066 71.031s-70.96-31.647-70.96-71.031v-74.23c0-39.278 31.682-70.855 70.96-70.855zM368.093 507.339h113.614v-100.287h-113.614v100.287zM551.788 507.339h113.719v-100.287h-113.719v100.287zM722.155 507.339h113.614v-100.287h-113.614v100.287zM368.093 340.804h113.614v-100.216h-113.614v100.216zM551.788 340.804h113.719v-100.216h-113.719v100.216zM722.155 340.804h113.614v-100.216h-113.614v100.216zM368.093 170.963h113.614v-100.216h-113.614v100.216zM187.633 340.804h113.543v-100.216h-113.543v100.216zM187.633 170.963h113.543v-100.216h-113.543v100.216zM551.788 170.963h113.719v-100.216h-113.719v100.216zM722.155 170.963h113.614v-100.216h-113.614v100.216z" />
<glyph unicode="&#xe902;" glyph-name="folder" d="M1017.711 344.661l-180.951-342.465c-8.853-17.028-33.948-35.039-53.327-35.039l-725.655-0.133c-15.33 0-30.028 6.077-40.861 16.918-10.832 10.843-16.918 25.525-16.918 40.861l0.117 563.479c0 31.866 25.833 57.723 57.702 57.754l53.056 0.050v-49.223h-35.495c-6.947 0-13.62-2.757-18.536-7.673-4.911-4.916-7.673-11.584-7.673-18.536l0.052-528.218c0-14.489 11.741-26.209 26.214-26.209h36.352l171.492 346.915c9.689 19.379 27.997 35.041 47.349 35.041h419.989l0.143 139.61c27.423-2.543 49.067-25.29 49.067-53.363v-86.249h192.622c22.748-0.233 41.902-22.727 25.259-53.519zM144.334 190.857c-1.567 172.682 0 690.741 0 690.741 0 26.138 21.257 47.38 47.369 47.38h379.351c6.077 0 11.874-2.543 15.98-7.015l122.642-133.25c3.676-4.013 5.737-9.266 5.737-14.708v-345.193h-39.788v315.386c0 5.457-4.431 9.889-9.894 9.889h-93.87c-10.986 0-19.92 8.918-19.92 19.884v105.325c0 5.458-4.431 9.889-9.894 9.889h-350.32c-4.185 0-7.592-3.405-7.592-7.587v-647.307l-30.446-61.597c0.002 0.010-9.198 0.684-9.355 18.163zM591.771 793.86h59.096l-59.096 64.237v-64.237zM613.323 713.563h-366.634c-13.508 0-24.473-10.976-24.473-24.484 0-13.498 10.976-24.478 24.473-24.478h366.645c13.508 0 24.506 10.989 24.506 24.478-0.022 13.498-11.017 24.484-24.516 24.484zM637.817 546.513c0 13.498-10.984 24.463-24.494 24.463h-366.634c-13.508 0-24.473-10.986-24.473-24.463 0-13.498 10.976-24.463 24.473-24.463h366.645c13.489-0.002 24.484 10.965 24.484 24.463zM222.2 402.98c0-13.496 10.981-24.463 24.478-24.463h8.791c15.474 43.127 53.831 48.926 53.831 48.926h-62.622c-13.477 0-24.478-10.965-24.478-24.463z" />
<glyph unicode="&#xe903;" glyph-name="graphic" d="M1006.933 12.8v665.6h-204.8v-665.6h-51.2v529.067h-204.8v-529.067h-51.2v392.533h-204.8v-392.533h-51.2v238.933h-204.8v-238.933h-17.067c-9.421 0-17.067-7.629-17.067-17.067s7.646-17.067 17.067-17.067h989.867c9.421 0 17.067 7.629 17.067 17.067s-7.646 17.067-17.067 17.067zM137.045 485.035c2.884 0 5.837 0.734 8.516 2.287l618.991 357.376-38.741-85.163c-3.908-8.585-0.119-18.705 8.465-22.596 2.287-1.058 4.693-1.536 7.066-1.536 6.485 0 12.681 3.721 15.548 10.001l60.791 133.632c0.188 0.427 0.154 0.887 0.307 1.331 0.324 0.905 0.58 1.775 0.751 2.731 0.085 0.478 0.358 0.87 0.393 1.365 0.017 0.205-0.068 0.375-0.051 0.58 0.034 0.649-0.034 1.246-0.068 1.894-0.051 0.939-0.205 1.826-0.41 2.765-0.137 0.649-0.171 1.314-0.393 1.946-0.205 0.614-0.563 1.126-0.836 1.724-0.222 0.393-0.222 0.853-0.461 1.263s-0.649 0.649-0.922 1.041c-0.358 0.529-0.631 1.092-1.058 1.57-0.444 0.512-1.007 0.87-1.519 1.331-0.7 0.631-1.399 1.212-2.185 1.724-0.529 0.341-1.007 0.717-1.587 1.007-0.188 0.085-0.29 0.256-0.478 0.341-0.427 0.188-0.887 0.154-1.314 0.307-0.939 0.341-1.86 0.58-2.833 0.751-0.444 0.085-0.802 0.341-1.263 0.375l-146.125 14.165c-9.472 0.956-17.732-5.973-18.637-15.326-0.922-9.387 5.956-17.732 15.326-18.637l93.116-9.028-618.94-357.376c-8.175-4.71-10.957-15.155-6.246-23.313 3.157-5.478 8.892-8.533 14.797-8.533z" />
<glyph unicode="&#xe904;" glyph-name="hands" d="M1024 726.348v-309.976c0 0-66.342-13.070-80.009-14.789-13.624-1.715-56.437-15.539-87.466 14.285-47.851 45.861-217.863 214.935-217.863 214.935s-29.314 28.764-76.381 3.905c-43.206-22.772-107.253-56.146-134.005-69.142-50.572-26.917-92.486 15.789-92.486 48.32 0 25.233 15.746 42.359 38.254 54.954 60.999 36.979 189.568 109.145 243.117 137.598 32.549 17.312 56.001 18.795 100.689-18.851 55.037-46.287 104.015-88.478 104.015-88.478s15.975-13.332 41.452-7.963c62.561 13.227 160.684 35.202 160.684 35.202zM347.306 201.125c8.233 21.153 5.481 44.811-10.304 61.043-14.184 14.518-34.892 18.345-54.638 13.82 5.523 19.584 2.473 40.429-11.787 55.14-14.227 14.481-34.896 18.384-54.64 13.818 5.481 19.556 2.44 40.398-11.828 55.065-22.343 22.917-60.989 21.934-86.377-2.267-25.254-24.233-41.431-68.138-18.892-93.98 22.502-25.712 48.357-10.068 68.067-5.576-5.483-19.556-21.913-37.745-1.68-63.342 20.215-25.609 48.355-10.072 68.086-5.622-5.502-19.481-21.215-39.497-1.758-63.231 19.632-23.805 51.787-11.122 73.024-4.525-8.196-21.072-25.739-43.787-3.2-69.241 22.504-25.638 74.509-13.777 99.912 10.461 25.334 24.233 27.766 62.64 5.483 85.629-15.384 15.773-38.318 19.442-59.468 12.808zM810.821 362.392c-183.634 183.636-97.261 97.226-196.084 196.262 0 0-29.7 29.568-68.844 12.392-27.479-12.041-62.857-28.452-89.476-40.981-29.252-15.339-50.303-20.087-60.187-20.020-56.549 0.37-102.429 45.822-102.429 102.315 0 36.648 19.456 68.555 48.475 86.666 40.805 28.237 134.73 78.195 134.73 78.195s-28.613 36.258-91.294 36.258c-62.662 0-193.582-85.768-193.582-85.768s-37.14-23.789-90.084-2.362l-102.044 35.535v-354.7c0 0 29.138-8.434 55.32-19.128 5.913 16.863 15.454 32.436 28.69 45.297 43.435 41.371 115.43 41.801 154.949 1.109 11.905-12.37 20.213-27.126 24.452-43.437 15.923-4.915 30.347-13.622 41.938-25.564 11.94-12.287 20.217-27.126 24.491-43.355 15.905-4.919 30.307-13.659 41.938-25.609 13.097-13.506 21.822-29.82 25.896-47.495 16.626-4.843 31.65-13.853 43.752-26.225 23.75-24.394 32.179-57.491 27.072-89.416 0.041 0 0.12 0 0.157-0.072 0.388-0.508 14.715-16.479 23.648-25.487 17.508-17.525 46.097-17.525 63.658 0 17.446 17.518 17.523 46.051 0 63.658-0.628 0.626-63.165 66.038-58.132 71.111 4.996 5.037 84.67-77.867 86.154-79.383 17.485-17.489 46.055-17.489 63.619 0 17.523 17.518 17.485 46.051 0 63.617-0.859 0.818-4.446 4.254-5.777 5.622 0 0-78.995 70.371-72.983 76.383 6.087 6.050 104.209-85.52 104.369-85.52 17.638-15.884 44.807-15.766 61.776 1.211 16.51 16.508 16.863 42.621 2.227 60.218-0.31 0.936-74.78 78.761-68.968 84.617 5.897 5.932 79.584-69.943 79.739-70.1 17.446-17.485 46.055-17.485 63.619 0 17.485 17.487 17.485 46.055 0 63.698-0.238 0.149-0.55 0.306-0.783 0.459z" />
<glyph unicode="&#xe905;" glyph-name="man" d="M512 713.868c67.198 0 121.866 54.672 121.866 121.866s-54.668 121.866-121.866 121.866-121.866-54.672-121.866-121.866 54.668-121.866 121.866-121.866zM537.624 674.449c-2.71 2.951-6.672 4.437-10.678 4.437h-29.893c-4.006 0-7.968-1.486-10.678-4.437-4.196-4.572-4.803-11.174-1.827-16.336l15.977-24.090-7.482-63.102 14.729-39.184c1.438-3.941 7.009-3.941 8.447 0l14.729 39.184-7.482 63.102 15.977 24.090c2.986 5.161 2.376 11.767-1.82 16.336zM324.332 392.942h375.329c9.571 0 17.36 7.789 17.36 17.36v156.369c0 45.559-29.534 86.016-73.494 100.666l-34.271 10.519c-6.272 1.938-12.953-1.393-15.205-7.564l-82.051-225.128-82.051 225.132c-1.82 4.986-6.527 8.113-11.571 8.113-1.2 0-2.42-0.176-3.62-0.548l-34.009-10.433c-44.239-14.743-73.773-55.196-73.773-100.755v-156.369c0-9.571 7.789-17.36 17.356-17.36zM121.863 651.579c67.198 0 121.866 54.668 121.866 121.863 0 67.198-54.672 121.866-121.866 121.866s-121.863-54.672-121.863-121.866c0-67.198 54.668-121.863 121.863-121.863zM329.304 316.573h-97.063v191.716c0 60.961-49.417 110.378-110.375 110.378s-110.375-49.417-110.375-110.375v-260.43c0-58.527 47.445-105.972 105.972-105.972h125.938v-173.539c0-16.543 13.409-29.951 29.951-29.951h116.277c16.543 0 29.951 13.409 29.951 29.951v257.945c0 49.859-40.419 90.277-90.277 90.277zM902.137 651.579c67.198 0 121.863 54.668 121.863 121.863 0 67.198-54.668 121.866-121.863 121.866s-121.866-54.672-121.866-121.866c-0.003-67.198 54.668-121.863 121.866-121.863zM902.134 618.667c-60.961 0-110.375-49.417-110.375-110.375v-191.716h-97.059c-49.859 0-90.277-40.419-90.277-90.277v-257.945c0-16.543 13.409-29.951 29.951-29.951h116.277c16.543 0 29.951 13.409 29.951 29.951v173.539h125.938c58.527 0 105.972 47.445 105.972 105.972v260.43c0 60.954-49.417 110.371-110.378 110.371z" />
<glyph unicode="&#xe906;" glyph-name="multiple-users-silhouette" d="M617.94 730.971c47.347-29.686 80.548-79.921 86.592-138.233 19.309-9.022 40.74-14.211 63.462-14.211 82.95 0 150.182 67.232 150.182 150.169 0 82.95-67.232 150.182-150.182 150.182-82.158-0.026-148.801-66.056-150.054-147.907zM519.553 423.477c82.95 0 150.182 67.244 150.182 150.182s-67.244 150.169-150.182 150.169c-82.937 0-150.207-67.244-150.207-150.182s67.27-150.169 150.207-150.169zM583.257 413.24h-127.435c-106.029 0-192.289-86.273-192.289-192.302v-155.843l0.396-2.441 10.735-3.361c101.186-31.616 189.094-42.159 261.45-42.159 141.326 0 223.24 40.293 228.288 42.862l10.032 5.073h1.073v155.868c0.038 106.029-86.221 192.302-192.251 192.302zM831.724 568.278h-126.451c-1.367-50.593-22.964-96.151-57.123-128.917 94.247-28.025 163.204-115.422 163.204-218.653v-48.024c124.853 4.575 196.8 39.961 201.541 42.338l10.032 5.086h1.073v155.894c0 106.017-86.26 192.276-192.276 192.276zM256.032 578.502c29.379 0 56.714 8.575 79.87 23.182 7.361 48.012 33.098 89.966 69.864 118.54 0.153 2.811 0.422 5.597 0.422 8.434 0 82.95-67.244 150.182-150.156 150.182-82.963 0-150.182-67.232-150.182-150.182 0-82.912 67.219-150.156 150.182-150.156zM390.904 439.361c-33.993 32.6-55.513 77.915-57.085 128.201-4.69 0.345-9.329 0.716-14.108 0.716h-127.422c-106.029 0-192.289-86.26-192.289-192.276v-155.868l0.396-2.402 10.735-3.386c81.174-25.341 153.619-37.021 216.544-40.702v47.066c0.026 103.231 68.957 190.602 163.229 218.653z" />
<glyph unicode="&#xe907;" glyph-name="piggy-bank" horiz-adv-x="2200" d="M1332.33 74.103l5.219 4.597c0.834 0.63 1.464 1.252 2.086 2.086 2.715 3.133 63.731 73.546 86.919 127.659h11.074c31.547 0 57.253 25.699 57.253 57.253v90.476c0 31.547-25.706 57.253-57.253 57.253h-12.326c-19.016 49.516-51.397 94.231-94.436 130.587-6.265 22.354-1.676 46.171 14.002 71.035 8.768 14.002 8.768 31.554-0.205 45.549-8.996 14.002-24.659 21.519-41.172 19.433-60.378-7.525-96.529-34.892-117.631-60.386-19.85 5.431-40.323 9.61-61.008 11.909-11.279 1.252-21.732-6.683-22.983-18.174-1.259-11.279 6.683-21.732 18.182-22.983 22.976-2.715 45.746-7.729 67.478-14.624 8.768-2.715 18.174 0.63 23.4 8.146 14.207 21.102 42.834 47.847 97.576 54.742 0.417 0 0.827 0 1.252-0.63 0.417-0.63 0.205-1.047 0-1.259-21.724-34.679-28.209-70.83-18.599-104.676 0.205-6.061 2.935-11.696 7.737-15.459 44.093-35.521 76.049-80.653 92.357-130.587 2.708-8.571 10.862-14.207 19.63-14.207v0h26.745c8.776 0 15.883-7.107 15.883-15.883v-90.469c0-8.776-7.107-15.883-15.883-15.883h-25.281c-8.981 0-17.135-5.848-19.85-14.624-11.696-38.237-63.094-103.007-83.156-126.202l-4.589-3.967c-43.038-38.866-47.43-84.833-47.635-98.615v-29.051h-119.307v27.997c0 5.848-2.511 11.499-6.895 15.466s-10.24 5.848-16.088 5.219c-30.5-3.133-61.22-2.715-90.886 1.252-5.848 0.834-11.909-1.047-16.301-5.014-4.597-3.967-7.107-9.61-7.107-15.663v-29.044h-119.3v8.146c0 0.205 0 0.63 0 0.834-1.047 21.944-7.942 77.513-51.397 122.22-20.48 21.11-38.866 49.106-54.742 82.952-0.212 0.212-0.212 0.425-0.417 0.842-9.406 17.962-16.505 36.978-21.314 57.041l-0.212 0.827c0 0.212-0.205 0.425-0.205 0.63-7.525 25.077-6.683 56.623-6.683 56.836 0 0.205 0 0.417 0 0.622 0 13.79 1.252 27.792 3.337 41.37 1.881 11.279-5.643 21.936-16.923 23.817s-21.936-5.636-23.817-16.915c-2.715-15.671-3.967-31.767-3.967-47.855-0.205-4.179-0.63-39.276 8.359-69.571v0c5.431-22.354 13.79-44.297 24.447-65.195 17.552-38.025 38.654-69.579 62.259-94.026 33.223-34.27 38.866-77.301 39.693-94.86v-8.564c0-0.834 0-1.464 0.212-2.708 1.464-21.11 19.221-37.82 40.323-37.82h120.976c22.354 0 40.535 18.174 40.535 40.535v6.895c18.174-1.456 36.143-1.676 54.53-0.834v-6.061c0-22.354 18.174-40.535 40.535-40.535h120.976c22.354 0 40.535 18.174 40.535 40.535v29.461c0.425 6.493 2.723 39.913 34.057 68.123zM706.568 560.094c0-93.814 76.261-170.287 170.287-170.287 93.814 0 170.28 76.269 170.28 170.287 0 93.814-76.261 170.28-170.28 170.28-93.821 0.008-170.287-76.261-170.287-170.28zM1005.765 560.094c0-71.043-57.875-128.91-128.918-128.91s-128.918 57.867-128.918 128.91c0 71.035 57.875 128.91 128.918 128.91s128.918-57.867 128.918-128.91zM1190.047 841.322c0 65.399-53.278 118.678-118.678 118.678-65.392 0-118.67-53.278-118.67-118.678s53.278-118.678 118.678-118.678c65.392 0 118.67 53.278 118.67 118.678zM993.856 841.322c0 42.629 34.687 77.308 77.308 77.308s77.308-34.679 77.308-77.308c0-42.621-34.687-77.301-77.308-77.301s-77.308 34.679-77.308 77.301z" />
<glyph unicode="&#xe908;" glyph-name="Picto_Earth" d="M746.166 732.246l0.99-7.602-11.392-2.36-1.516-16.194h13.646l18.152 1.748 9.372 11.14-9.96 3.876-5.456 6.274-8.192 13.268-3.916 18.764-15.394-3.138-4.318-6.612v-7.456l7.414-5.076zM733.046 726.012l0.824 10.15-9.036 3.896-12.634-2.928-9.372-15.036v-9.75h10.93zM472.966 682.904l-2.78-7.16h-13.458v-6.95h3.202c0 0 0.19-1.474 0.462-3.412l8.254 0.696 5.16 3.202 1.348 6.464 6.676 0.568 2.632 5.434-6.128 1.264-5.368-0.106zM438.282 670.29l-0.526-6.802 9.75 0.82 1.012 6.824-5.854 4.612zM1023.874 453.296c-0.146 14.974-0.904 29.84-2.316 44.478-4.738 48.794-16.404 95.566-33.882 139.412-1.306 3.264-2.508 6.57-3.896 9.792-23.292 55.028-55.996 105.126-96.030 148.362-2.632 2.822-5.306 5.602-7.982 8.338-7.56 7.856-15.33 15.52-23.376 22.87-91.018 82.868-211.898 133.452-344.402 133.452-133.62 0-255.362-51.49-346.632-135.622-21.27-19.606-40.812-41.002-58.544-63.914-66.886-86.51-106.814-194.88-106.814-312.454 0-282.34 229.692-512.010 512.010-512.010 198.586 0 371 113.718 455.866 279.412 18.154 35.422 32.284 73.182 41.802 112.752 2.422 10.042 4.506 20.132 6.318 30.344 5.158 29.084 7.98 58.988 7.98 89.502 0.024 1.77-0.082 3.518-0.102 5.286zM927.508 657.928l2.968 3.328c3.896-7.56 7.54-15.246 11.014-23.038l-4.844 0.19-9.138-1.264v20.784zM853.528 747.26l0.084 22.87c8.042-8.53 15.792-17.31 23.208-26.408l-9.224-13.73-32.242 0.294-2.022 6.718 20.196 10.256zM235.904 804.1v0.864h10.256l0.884 3.516h16.784v-7.328l-4.824-6.444h-23.124l0.024 9.392zM252.288 781.25c0 0 10.256 1.748 11.14 1.748s0-10.234 0-10.234l-23.124-1.454-4.402 5.264 16.386 4.676zM960.126 578.008h-37.462l-22.828 16.994-24.030-2.336v-14.658h-7.602l-8.212 5.854-41.614 10.55v26.956l-52.732-4.106-16.342-8.782h-20.934l-10.256 1.032-25.418-14.11v-26.556l-51.954-37.486 4.318-16.004h10.53l-2.76-15.248-7.412-2.716-0.4-39.844 44.898-51.132h19.542l1.18 3.118h35.126l10.128 9.372h19.922l10.93-10.95 29.694-3.074-3.938-39.488 32.958-58.186-17.354-33.168 1.18-15.626 13.668-13.626v-37.568l17.942-24.134v-31.208h15.5c-86.258-105.906-217.542-173.738-364.428-173.738-259.066-0.020-469.848 210.78-469.848 469.87 0 65.22 13.394 127.386 37.506 183.888v14.658l16.804 20.406c5.834 11.014 12.088 21.754 18.764 32.22l0.758-8.528-19.5-23.692c-6.044-11.414-11.688-23.080-16.806-35.064v-26.746l19.522-9.392v-37.17l18.722-31.946 15.226-2.338 1.958 10.952-17.964 27.714-3.516 26.934h10.53l4.444-27.714 25.966-37.886-6.698-12.236 16.51-25.25 41.002-10.15v6.634l16.406-2.338-1.558-11.708 12.888-2.358 19.902-5.432 28.114-32.030 35.906-2.718 3.516-29.292-24.576-17.184-1.16-26.156-3.516-16.004 35.548-44.498 2.716-15.248c0 0 12.888-3.494 14.468-3.494 1.558 0 28.892-20.702 28.892-20.702v-80.426l9.75-2.738-6.634-37.106 16.406-21.88-3.034-36.768 21.67-38.098 27.82-24.3 27.966-0.506 2.738 8.992-20.554 17.31 1.18 8.592 3.684 10.53 0.78 10.74-13.898 0.422-7.012 8.802 11.54 11.098 1.558 8.38-12.888 3.686 0.758 7.792 18.364 2.78 27.924 13.414 9.372 17.186 29.292 37.484-6.654 29.314 8.992 15.604 26.936-0.82 18.13 14.364 5.854 56.564 20.114 25.544 3.516 16.404-18.342 5.876-12.11 19.858-41.38 0.42-32.81 12.512-1.558 23.394-10.95 19.144-29.672 0.442-17.142 26.914-15.226 7.434-0.78-8.212-27.714-1.642-10.15 14.13-28.916 5.876-23.818-27.526-37.486 6.362-2.716 42.244-27.356 4.674 10.972 20.722-3.138 11.898-35.948-24.028-22.618 2.758-8.066 17.668 4.928 18.216 12.466 22.976 28.704 14.53 55.428 0.022-0.148-16.91 19.922-9.266-1.58 28.894 14.362 14.446 28.978 19.038 1.98 13.394 28.894 30.074 30.724 17.016-2.716 2.232 20.806 19.584 7.624-2.022 3.496-4.38 7.898 8.76 1.938 0.864-8.656 1.222-8.782 2.926v8.424l4.654 3.812h10.256l4.696-2.064 4.064-8.212 4.97 0.758v0.716l1.432-0.484 14.404 2.21 2.042 7.034 8.212-2.064v-7.624l-7.624-5.244h0.020l1.116-8.36 26.092-8.044c0 0 0.022-0.106 0.064-0.316l6 0.506 0.402 11.308-20.682 9.414-1.178 5.432 17.164 5.854 0.758 16.426-17.942 10.93-1.178 27.694-24.598-12.088h-8.97l2.358 21.080-33.484 7.898-13.856-10.466v-31.926l-24.914-7.898-9.982-20.806-10.824-1.748v26.618l-23.416 3.244-11.708 7.624-4.718 17.248 41.886 24.512 20.49 6.234 2.064-13.772 11.414 0.59 0.884 6.928 11.94 1.706 0.21 2.422-5.138 2.126-1.178 7.33 14.678 1.242 8.866 9.224 0.484 0.674 0.106-0.042 2.696 2.78 30.852 3.896 13.646-11.582-35.78-19.058 45.53-10.74 5.896 15.226h19.902l7.034 13.268-14.068 3.516v16.778l-44.118 19.542-30.452-3.516-17.184-8.992 1.178-21.86-17.962 2.738-2.758 12.088 17.206 15.626-31.23 1.558-8.972-2.716-3.896-10.53 11.708-1.98-2.338-11.708-19.902-1.18-3.116-7.792-28.872-0.8c0 0-0.8 16.384-1.958 16.384s22.638 0.4 22.638 0.4l17.206 16.804-9.392 4.696-12.488-12.13-20.722 1.18-12.488 17.184h-26.556l-27.714-20.702h25.398l2.316-7.434-6.592-6.128 28.114-0.78 4.296-10.15-31.652 1.178-1.538 7.814-19.9 4.296-10.55 5.854-23.692-0.19c77.56 56.5 172.938 89.944 276.022 89.944 118.816 0 227.376-44.414 310.2-117.384l-5.58-9.982-21.67-8.486-9.138-9.918 2.106-11.562 11.182-1.558 6.74-16.846 19.29 7.77 3.18-22.534h-5.812l-15.836 2.338-17.562-2.948-16.996-24.008-24.3-3.812-3.518-20.806 10.256-2.422-2.968-13.372-24.134 4.844-22.132-4.844-4.696-12.32 3.832-25.862 12.994-6.086 21.794 0.126 14.72 1.328 4.486 11.708 22.996 29.882 15.142-3.096 14.908 13.478 2.782-10.53 36.684-24.744-4.484-6.024-16.532 0.884 6.36-9.014 10.172-2.232 11.92 4.97-0.254 14.362 5.286 2.654-4.254 4.506-24.47 13.646-6.444 18.132h20.344l6.506-6.444 17.522-15.1 0.738-18.258 18.152-19.334 6.76 26.494 12.572 6.866 2.36-21.67 12.278-13.478 24.492 0.422c4.738-12.194 8.992-24.598 12.718-37.254l-2.554-2.352zM279.264 727.38l12.298 5.854 11.12-2.654-3.834-14.93-12.002-3.812-7.582 15.542zM344.528 692.234v-9.666h-28.092l-10.53 2.926 2.632 6.74 13.5 5.58h18.448v-5.58h4.042zM357.458 678.756v-9.372l-7.034-4.528-8.76-1.622c0 0 0 14.046 0 15.522h15.794zM349.54 682.568v11.14l9.666-8.802-9.666-2.338zM353.94 660.034v-9.12l-6.718-6.738h-14.93l2.338 10.234 7.054 0.61 1.454 3.518 10.802 1.496zM316.75 678.756h15.52l-19.9-27.82-8.212 4.402 1.768 11.708 10.824 11.71zM380.306 663.234v-9.098h-14.93l-4.086 5.898v8.466h1.18l17.836-5.266zM366.512 675.744l4.254 4.464 7.182-4.464-5.75-4.738-5.686 4.738zM967.752 554.296l1.472 1.726c0.612-2.654 1.264-5.306 1.854-8.002l-3.326 6.276zM79.646 646.556v-14.658c5.118 11.962 10.762 23.628 16.806 35.064l-16.806-20.406z" />
<glyph unicode="&#xe909;" glyph-name="Picto_Handshake" d="M1019.204 617.852l-198.598 198.602c-6.386 6.388-16.74 6.388-23.13 0l-99.298-99.3c-3.066-3.066-4.788-7.226-4.788-11.564s1.72-8.498 4.788-11.564l9.906-9.906-22.764-22.76c-14.778-14.772-37.708-18.804-57.056-10.022-18.14 8.234-38.304 12.584-58.32 12.584-23.766 0-46.992-5.966-67.628-17.266-8.606 2.12-17.438 3.206-26.358 3.206-12.9 0-25.57-2.226-37.658-6.62-19.302-7.012-39.992-2.666-54.006 11.344l-40.874 40.876 4.868 4.868c3.066 3.066 4.788 7.226 4.788 11.564s-1.722 8.498-4.788 11.564l-99.3 99.3c-6.39 6.388-16.742 6.388-23.13 0l-221.068-221.068c-6.386-6.388-6.386-16.742 0-23.128l99.298-99.3c3.068-3.068 7.226-4.79 11.566-4.79s8.496 1.722 11.566 4.79l5.922 5.922 28.828-28.828c7.274-7.274 12.096-16.358 13.942-26.264 9.572-51.364 34.172-98.062 71.14-135.050l5.43-5.43c-10.428-10.98-16.164-25.29-16.164-40.488 0-15.722 6.124-30.504 17.24-41.624 11.476-11.474 26.546-17.21 41.622-17.21 0.982 0 1.96 0.026 2.942 0.076-0.796-16.040 4.916-32.34 17.136-44.564 11.118-11.118 25.9-17.24 41.622-17.24 0.438 0 0.874 0.022 1.312 0.034-0.336-15.498 5.382-31.106 17.182-42.906 11.118-11.122 25.9-17.24 41.624-17.24 15.722 0 30.502 6.124 41.622 17.24 0.936 0.936 1.818 1.904 2.68 2.882 5.79-2.018 11.914-3.092 18.104-3.092 14.706 0 28.522 5.73 38.882 16.126 5.514 5.512 9.698 11.996 12.422 19.056l1.674-1.674c10.718-10.716 24.796-16.078 38.876-16.078s28.154 5.362 38.874 16.078c5.696 5.698 9.974 12.422 12.688 19.756 9.594-6.976 20.952-10.47 32.316-10.47 14.078 0 28.164 5.358 38.89 16.070 10.382 10.382 16.1 24.196 16.1 38.89 0 4.442-0.532 8.792-1.544 13.004 10.472 2.128 20.098 7.27 27.82 15.002 10.38 10.38 16.1 24.188 16.1 38.874 0 11.57-3.564 22.586-10.146 31.82l13.12 13.122c37.398 37.414 62.104 84.7 71.452 136.74 1.564 8.712 5.88 16.808 12.484 23.414l48.796 48.796 8.578-8.578c3.194-3.194 7.378-4.79 11.564-4.79s8.374 1.596 11.566 4.79l99.3 99.3c3.064 3.066 4.788 7.226 4.788 11.564s-1.734 8.492-4.8 11.56zM115.654 513.952l-76.172 76.172 197.938 197.936 76.172-76.17-197.938-197.938zM313.67 230.624c-10.194-10.192-26.784-10.196-36.986 0-4.94 4.944-7.66 11.508-7.66 18.496 0 6.984 2.722 13.55 7.662 18.492 5.098 5.098 11.792 7.646 18.49 7.646 6.696 0 13.396-2.548 18.492-7.646 10.196-10.196 10.196-26.788 0.002-36.988zM375.366 168.93c-4.936-4.942-11.502-7.658-18.492-7.658-6.984 0-13.552 2.72-18.49 7.658-10.198 10.198-10.198 26.79 0 36.986 5.098 5.1 11.792 7.648 18.492 7.648 6.694 0 13.394-2.548 18.49-7.648 10.2-10.196 10.2-26.79 0-36.986zM435.482 108.816c-4.94-4.94-11.506-7.66-18.49-7.66-6.986 0-13.554 2.722-18.492 7.66-10.198 10.198-10.198 26.79 0 36.986 5.098 5.098 11.792 7.648 18.492 7.648 6.694 0 13.394-2.55 18.49-7.648 10.198-10.196 10.198-26.788 0-36.986zM713.256 234.36c-4.204-4.208-9.794-6.526-15.738-6.526s-11.534 2.318-15.746 6.538l-158.658 158.622c-6.392 6.386-16.744 6.384-23.13-0.004-6.384-6.384-6.382-16.742 0.004-23.126l170.902-170.882c4.206-4.206 6.52-9.794 6.52-15.744 0-5.96-2.316-11.558-6.514-15.756-8.694-8.686-22.832-8.688-31.512-0.006l-28.832 28.832c-0.16 0.166-0.316 0.334-0.482 0.498-0.048 0.048-0.102 0.090-0.15 0.138l-132.534 132.532c-6.39 6.386-16.742 6.386-23.13 0-6.388-6.384-6.388-16.742 0-23.126l132.958-132.958c4.064-4.166 6.302-9.678 6.302-15.526 0-5.95-2.32-11.542-6.524-15.744-8.676-8.682-22.8-8.682-31.484 0l-144.17 144.17c-6.39 6.388-16.742 6.388-23.13 0-6.388-6.384-6.388-16.742 0-23.126l106.868-106.87c0.030-0.032 0.054-0.064 0.086-0.092 4.202-4.196 6.514-9.776 6.514-15.718 0-5.946-2.316-11.538-6.538-15.76-4.198-4.208-9.786-6.526-15.74-6.526-1.438 0-2.844 0.148-4.22 0.408 2.646 17.826-2.872 36.638-16.564 50.332-11.118 11.118-25.9 17.242-41.622 17.242-0.438 0-0.874-0.024-1.312-0.034 0.336 15.498-5.38 31.104-17.182 42.906-11.12 11.116-25.9 17.24-41.624 17.24-0.984 0-1.962-0.024-2.938-0.074 0.786 16.030-4.926 32.316-17.14 44.534-14.868 14.866-35.768 20.088-54.888 15.694l-11.728 11.728c-32.28 32.294-53.756 73.068-62.114 117.92-3.062 16.424-11.004 31.434-22.966 43.398l-28.828 28.826 164.018 164.020 40.876-40.876c15.712-15.712 37.104-24.12 59.014-24.12 9.812 0 19.734 1.688 29.292 5.162 4.636 1.686 9.43 2.896 14.288 3.664l-101.264-101.266c-12.39-12.388-19.214-28.86-19.214-46.382 0-17.52 6.824-33.992 19.212-46.378 12.788-12.79 29.58-19.182 46.38-19.18 16.796 0 33.594 6.396 46.384 19.18l50.86 50.858 13.766-13.776c0.004-0.004 0.006-0.006 0.012-0.010l0.57-0.572 0.55-0.55c0.002-0.002 0.006-0.006 0.010-0.008l0.010-0.010c0.158-0.156 0.312-0.304 0.464-0.452l191.762-191.762c4.208-4.204 6.52-9.794 6.52-15.742 0-5.958-2.314-11.55-6.526-15.76zM816.27 478.334c-11.348-11.35-18.8-25.446-21.548-40.76-8.16-45.442-29.732-86.728-62.384-119.396l-12.568-12.57-103.46 103.462c2.248-0.168 4.506-0.278 6.78-0.278 10.476 0 21.198 1.836 31.87 6.204 8.36 3.418 12.364 12.968 8.944 21.328-3.42 8.356-12.962 12.364-21.328 8.942-42.092-17.22-92.554 30.242-98.174 35.71-0.094 0.092-0.188 0.182-0.284 0.27l-0.58 0.58c-0.002 0.002-0.004 0.002-0.006 0.004l-0.508 0.504c0 0.002-0.004 0.006-0.008 0.008l-13.77 13.778 15.614 15.614c6.39 6.388 6.39 16.742 0.002 23.13-6.388 6.384-16.742 6.386-23.126 0l-27.142-27.14c-0.010-0.010-0.022-0.020-0.032-0.030s-0.020-0.022-0.030-0.032l-62.4-62.402c-12.824-12.82-33.684-12.816-46.504 0-6.21 6.21-9.63 14.468-9.63 23.252s3.42 17.042 9.632 23.252l107.704 107.708c5.992 5.99 12.652 11.26 19.81 15.674 17.006 10.512 36.648 16.068 56.802 16.068 15.384 0 30.876-3.34 44.804-9.662 31.684-14.376 69.342-7.678 93.702 16.676l22.768 22.762 133.856-133.858-48.806-48.798zM908.338 530.114l-175.47 175.472 76.174 76.17 175.47-175.47-76.174-76.172zM941.168 593.782c0-9.032-7.322-16.354-16.354-16.354s-16.354 7.322-16.354 16.354c0 9.032 7.322 16.354 16.354 16.354s16.354-7.322 16.354-16.354zM123.488 577.624c0-9.032-7.322-16.354-16.354-16.354s-16.354 7.322-16.354 16.354c0 9.032 7.322 16.354 16.354 16.354s16.354-7.322 16.354-16.354z" />
<glyph unicode="&#xe90a;" glyph-name="insta" d="M989.416 772.79c-12.881 33.015-29.93 61.050-58.019 89.086-28.144 28.036-56.017 45.138-89.14 58.019-31.878 12.448-68.79 21-122.155 23.327-53.69 2.327-70.792 3.085-207.831 3.085-136.984 0-154.141-0.379-207.885-3.085-53.69-2.327-90.277-10.879-122.209-23.327-33.015-12.881-61.050-29.984-89.086-58.019s-45.138-56.071-58.019-89.086c-12.448-31.878-21-68.898-23.327-122.209-2.327-53.69-3.085-70.901-3.085-207.885 0-136.93 0.379-154.141 3.085-207.885 2.327-53.69 10.879-90.331 23.327-122.155 12.881-33.069 29.984-61.213 58.019-89.086 28.036-27.981 56.071-45.138 89.086-58.019 31.878-12.394 68.898-21 122.209-23.381 53.744-2.273 70.901-3.085 207.885-3.085 137.038 0 154.141 0.325 207.831 3.085 53.636 2.381 90.277 10.933 122.155 23.381 33.123 12.881 61.050 30.092 89.14 58.019 28.144 27.927 45.138 56.017 58.019 89.086 12.394 31.824 21.108 68.844 23.381 122.155 2.219 53.744 3.085 70.955 3.085 207.885 0 136.984-0.433 154.195-3.085 207.885-2.273 53.69-10.933 90.331-23.381 122.209zM922.087 239.195c-2.327-49.035-10.554-75.934-17.536-93.47-8.93-23.273-20.134-40.538-37.669-57.965-17.59-17.427-34.368-28.36-58.019-37.778-17.915-6.982-44.326-15.046-93.416-17.427-53.365-2.436-68.898-3.193-203.609-3.193-134.603 0-150.623 0.433-203.501 3.193-49.089 2.381-75.934 10.446-93.416 17.427-23.327 9.038-40.484 20.35-57.965 37.778-17.536 17.427-28.414 34.26-37.778 57.965-6.982 17.915-15.154 44.381-17.536 93.47-2.273 53.257-3.085 69.277-3.085 203.555 0 134.17 0.379 150.677 3.085 203.555 2.327 48.981 10.5 75.826 17.536 93.416 8.984 23.381 20.242 40.484 37.778 57.965 17.536 17.536 34.205 28.414 57.965 37.778 17.915 6.982 44.326 15.154 93.416 17.482 53.311 2.327 69.277 3.139 203.501 3.139 134.386 0 150.569-0.379 203.609-3.139 49.035-2.273 75.88-10.5 93.416-17.482 23.381-8.984 40.43-20.242 58.019-37.778 17.536-17.536 28.36-34.314 37.669-57.965 6.982-17.915 15.208-44.381 17.536-93.47 2.327-53.257 3.085-69.331 3.085-203.555s-0.758-150.569-3.085-203.501zM511.838 701.564c-142.775 0-258.814-115.985-258.814-258.814 0-142.884 116.039-258.76 258.814-258.76 142.83 0 258.76 115.931 258.76 258.76s-115.931 258.814-258.76 258.814zM511.838 274.537c-92.55 0-168.105 75.176-168.105 168.159 0 92.658 75.068 168.159 168.105 168.159 92.983 0 168.105-75.122 168.105-168.159 0-92.712-75.501-168.159-168.105-168.159zM841.011 711.685c0-33.299-26.994-60.293-60.293-60.293s-60.293 26.994-60.293 60.293c0 33.299 26.994 60.293 60.293 60.293s60.293-26.994 60.293-60.293z" />
</font></defs></svg>